818  communities detected.  160000
lv_   lfr_

frequencies :  
[ 1.  8. 18. 11. 36. 31.  7. 12.  8.  5.  6.  7.  8.  5.  5.  7.  7.  7.
  6.  6.  5.  7.  2.  8.  5.  5.  4.  6.  3.  2.  2.  3.  1.  4.  8.  4.
  7.  1.  4.  8.  3.  3.  1.  4.  2.  6.  3.  4.  2.  1.  1.  6.  2.  2.
  3.  4.  6.  3.  6.  5.  2.  4.  2.  4.  1.  2.  3.  2.  5.  3.  2.  4.
  2.  2.  4.  3.  2.  3.  2.  3.  4.  1.  2.  2.  3.  1.  1.  2.  3.  1.
  2.  2.  3.  5.  2.  3.  2.  1.  1.  1.  1.  2.  1.  2.  3.  4.  1.  2.
  2.  1.  3.  1.  1.  1.  2.  1.  1.  1.  1.  1.  1.  1.  1.  2.  1.  1.
  1.  2.  3.  4.  1.  3.  4.  1.  1.  3.  1.  2.  1.  2.  1.  1.  1.  3.
  3.  3.  1.  2.  2.  2.  2.  1.  1.  2.  1.  3.  1.  2.  1.  3.  1.  1.
  2.  1.  2.  2.  2.  2.  1.  1.  2.  1.  2.  1.  1.  1.  1.  5.  3.  2.
  1.  1.  2.  1.  1.  2.  1.  1.  1.  2.  1.  2.  1.  1.  1.  1.  1.  1.
  1.  2.  1.  1.  2.  1.  1.  1.  2.  2.  1.  1.  1.  1.  1.  1.  1.  1.
  1.  1.  1.  1.  1.  1.  1.  1.  1.  3.  1.  1.  1.  1.  1.  1.  1.  1.
  2.  1.  1.  1.  1.  1.  1.  1.  1.  1.  1.  1.  1.  1.  1.  1.  1.  1.
  1.  2.  1.  2.  1.  1.  2.  1.  1.  1.  1.  1.  1.  1.  1.  1.  2.  1.
  1.  1.  1.  1.  3.  1.  2.  2.  1.  1.  1.  1.  1.  1.  1.  1.  1.  1.
  1.  2.  1.  1.  1.  1.  1.  1.  1.  1.  1.  1.  1.  1.  1.  1.  1.  1.
  1.  1.  1.  1.  1.  1.  1.  2.  1.  1.  1.  1.  1.  1.  1.  1.  1.  1.
  1.  1.  1.  1.  1.  1.  1.  1.  1.  1.  1.  1.  1.  1.  1.  1.  1.  1.
  1.  1.  1.  1.  1.  2.  1.  1.  1.  1.  1.  2.  1.  2.  1.  1.  1.  1.
  1.  1.  1.  1.  1.  1.  1.  2.  1.  1.  1.  1.  1.  1.  1.  1.  1.  1.
  1.  1.  1.]

sizes :  
[  1   6   7   8   9  10  11  12  13  14  15  16  17  18  19  20  21  22
  23  24  25  26  27  28  29  30  31  32  33  34  35  36  37  38  39  40
  41  42  44  45  47  48  49  50  51  52  53  54  55  56  57  58  60  61
  62  63  64  65  66  67  68  69  70  71  72  73  74  75  76  77  78  79
  80  81  83  84  85  86  87  88  91  92  93  94  95  96  97  98  99 100
 101 102 103 104 106 107 109 110 111 112 113 114 115 116 118 119 121 122
 123 124 125 126 127 128 129 131 132 133 134 139 141 142 143 145 147 149
 153 154 155 157 158 160 161 162 165 166 167 168 169 173 174 175 177 179
 180 181 184 185 186 187 189 191 192 193 194 198 200 202 203 204 205 206
 208 209 210 211 213 215 218 220 222 224 226 228 229 230 232 234 236 239
 241 242 243 244 252 255 257 258 259 260 262 263 265 266 270 273 274 277
 278 283 284 285 287 289 290 291 292 297 301 303 307 308 310 311 313 314
 315 319 320 321 322 323 328 329 332 333 334 337 340 344 345 348 351 352
 353 354 355 356 357 360 361 362 363 364 365 367 369 370 371 372 379 382
 389 390 397 401 402 413 424 430 434 435 445 446 450 451 452 454 458 460
 463 464 465 470 474 478 480 482 485 486 487 489 492 493 496 502 505 506
 508 509 511 517 519 520 526 527 533 534 543 545 546 552 553 556 558 567
 570 571 572 575 580 581 588 589 598 602 603 608 615 623 624 627 630 636
 641 642 644 646 647 648 662 687 708 712 728 750 754 757 760 761 771 773
 774 794 801 803 809 812 821 827 829 836 837 845 856 857 861 867 871 872
 881 885 886 891 896 902 903 923 929 931 938 939 942 944 955 960 966 970
 985 991 999]

--------------------------------------------------------------------------------
941  communities detected.
lp_   lfr_   160000

frequencies :  [
 1.  4.  5.  6. 11. 26. 19. 47. 41. 10. 17. 11.  9.  8.  9. 11.  6.  7.
 11.  6.  7.  8.  6.  7.  9.  4.  8.  6.  6.  6.  5.  3.  4.  3.  4.  1.
  4.  9.  7.  7.  1.  3.  5.  7.  2.  3.  3.  1.  4.  3.  6.  3.  3.  2.
  2.  2.  6.  1.  1.  3.  7.  4.  7.  4.  5.  4.  2.  3.  3.  3.  2.  2.
  2.  5.  6.  1.  5.  3.  2.  1.  5.  2.  3.  4.  2.  3.  2.  2.  3.  2.
  3.  3.  1.  3.  1.  2.  5.  2.  2.  2.  3.  1.  1.  1.  1.  1.  1.  2.
  4.  2.  1.  2.  4.  2.  3.  1.  1.  2.  1.  1.  1.  2.  1.  1.  3.  4.
  1.  2.  1.  2.  1.  1.  1.  4.  2.  4.  1.  1.  3.  1.  2.  1.  1.  2.
  1.  1.  1.  3.  4.  2.  2.  3.  3.  2.  1.  2.  1.  1.  2.  1.  1.  1.
  3.  1.  1.  1.  3.  1.  1.  2.  2.  2.  2.  2.  2.  1.  1.  2.  2.  2.
  2.  1.  1.  1.  4.  2.  2.  1.  2.  1.  1.  1.  2.  1.  1.  1.  1.  1.
  2.  1.  1.  1.  1.  1.  1.  2.  1.  1.  1.  1.  1.  1.  3.  1.  1.  1.
  1.  1.  1.  1.  2.  2.  1.  1.  1.  1.  1.  1.  1.  1.  1.  3.  1.  1.
  1.  1.  1.  1.  1.  1.  1.  2.  1.  3.  1.  1.  1.  1.  1.  1.  1.  1.
  1.  1.  1.  1.  1.  1.  2.  1.  2.  1.  1.  2.  1.  1.  1.  1.  1.  1.
  2.  1.  1.  2.  1.  1.  1.  1.  3.  1.  1.  1.  2.  1.  1.  1.  1.  1.
  1.  1.  1.  1.  2.  1.  1.  1.  1.  2.  1.  1.  1.  1.  1.  1.  1.  1.
  1.  1.  1.  1.  1.  1.  1.  1.  1.  1.  1.  2.  1.  2.  1.  1.  1.  1.
  1.  1.  1.  2.  1.  1.  1.  1.  1.  1.  1.  1.  1.  1.  1.  1.  1.  1.
  1.  1.  1.  1.  1.  1.  1.  1.  1.  1.  1.  2.  1.  1.  1.  1.  2.  1.
  1.  1.  1.  1.  1.  1.  1.  1.  1.  1.  1.  1.  1.  1.  1.  1.  1.  1.
  1.  1.  1.  1.  1.]

sizes :  
[  1   3   4   5   6   7   8   9  10  11  12  13  14  15  16  17  18  19
  20  21  22  23  24  25  26  27  28  29  30  31  32  33  34  35  36  37
  38  39  40  41  42  43  44  45  46  47  48  49  50  51  52  53  54  55
  56  57  58  59  60  61  62  63  64  65  66  67  68  69  70  71  72  73
  74  76  77  78  79  80  81  82  83  84  85  86  87  88  91  93  94  95
  98  99 100 101 102 103 104 106 107 108 109 110 111 112 113 114 115 116
 118 119 121 122 123 124 125 126 127 129 130 131 132 138 139 140 141 142
 143 145 149 150 153 154 155 157 160 161 162 165 166 167 168 169 172 173
 174 175 178 179 180 181 184 185 186 187 188 189 191 192 193 194 196 197
 198 200 202 203 204 205 206 208 209 210 211 213 215 218 220 222 224 226
 228 229 230 232 234 236 239 241 242 243 244 252 255 258 259 260 262 263
 270 272 273 274 277 278 279 283 284 285 287 289 290 291 292 297 300 301
 303 307 310 311 313 314 315 319 320 321 323 327 328 329 332 333 334 337
 340 343 344 345 348 351 352 353 354 355 356 357 359 360 361 364 365 367
 370 371 372 379 382 386 390 397 401 402 407 424 426 430 434 446 450 451
 452 454 457 458 460 463 464 470 474 475 477 478 480 482 487 489 492 496
 502 505 506 508 509 511 517 519 520 526 527 530 533 534 545 546 548 553
 556 558 562 567 570 572 575 580 581 584 588 589 598 602 603 608 615 623
 624 627 630 636 640 641 642 644 646 647 648 649 652 660 668 671 687 708
 712 728 743 750 754 757 759 760 761 764 771 773 774 794 803 809 812 827
 829 837 856 857 861 867 871 882 885 886 896 902 903 923 929 931 938 939
 942 944 960 985 999]


------------------------------------------------------------------------------